Host Name:                 LAPTOP8
OS Name:                   Microsoft Windows 10 Pro
OS Version:                10.0.18362 N/A Build 18362
System Boot Time:          4/1/2020, 12:42:16 PM
System Model:              HP ProBook 640 G1
Total Physical Memory:     8,105 MB
Domain:                    vantage.local
SerialNumber  

5CG5221PY5    





    Directory: C:\Utils


Mode                LastWriteTime         Length Name                                                                  
----                -------------         ------ ----                                                                  
-a----         4/3/2020   8:24 PM             24 blacklist.txt                                                         
-a----         4/3/2020   8:24 PM             10 file.txt                                                              
-a----         4/2/2020  11:21 PM          23940 LAPTOP8-2020-04-02 23-20-21-vantage.local  log.txt                    
-a----         4/3/2020  12:21 AM              0 LAPTOP8-2020-04-03 00-21-00-vantage.local  log.txt                    
-a----         4/3/2020  12:23 AM          21980 LAPTOP8-2020-04-03 00-22-41-vantage.local  log.txt                    
-a----         4/3/2020  12:26 AM          21980 LAPTOP8-2020-04-03 00-25-39-vantage.local  log.txt                    
-a----         4/3/2020  12:32 AM          22464 LAPTOP8-2020-04-03 00-31-12-vantage.local  log.txt                    
-a----         4/3/2020  12:40 AM          22706 LAPTOP8-2020-04-03 00-39-46-vantage.local  log.txt                    
-a----         4/3/2020  12:49 AM          22948 LAPTOP8-2020-04-03 00-48-55-vantage.local  log.txt                    
-a----         4/3/2020  12:54 AM          23190 LAPTOP8-2020-04-03 00-54-03-vantage.local  log.txt                    
-a----         4/3/2020  12:55 AM          23432 LAPTOP8-2020-04-03 00-54-59-vantage.local  log.txt                    
-a----         4/3/2020  12:56 AM          23674 LAPTOP8-2020-04-03 00-55-49-vantage.local  log.txt                    
-a----         4/3/2020  12:57 AM          23916 LAPTOP8-2020-04-03 00-56-56-vantage.local  log.txt                    
-a----         4/3/2020  12:58 AM          24158 LAPTOP8-2020-04-03 00-57-47-vantage.local  log.txt                    
-a----         4/3/2020  12:58 AM          24400 LAPTOP8-2020-04-03 00-58-24-vantage.local  log.txt                    
-a----         4/3/2020   1:00 AM          24642 LAPTOP8-2020-04-03 01-00-02-vantage.local  log.txt                    
-a----         4/3/2020   8:25 PM            720 LAPTOP8-2020-04-03 20-24-48-vantage.local  log.txt                    
-a----       11/21/2019   9:39 AM          20668 log.txt                                                               
-a----        11/7/2019  11:51 AM          17544 samplelog.txt                                                         
-a----         4/3/2020   8:24 PM           7894 updatesdftp.ps1                                                       
-a----         4/3/2020  12:43 AM           7751 updatesdftporig.ps1                                                   
-a----         4/1/2020   4:54 AM         285424 WinSCP.com                                                            
-a----         4/1/2020   4:54 AM       26834032 WinSCP.exe                                                            


AutoInstallMinorUpdates

HKEY_LOCAL_MACHINE\Software\Policies\Microsoft\Windows\WindowsUpdate\AU
    AutoInstallMinorUpdates    REG_DWORD    0x0

NoAutoUpdate

HKEY_LOCAL_MACHINE\Software\Policies\Microsoft\Windows\WindowsUpdate\AU
    NoAutoUpdate    REG_DWORD    0x0

AUOptions

HKEY_LOCAL_MACHINE\Software\Policies\Microsoft\Windows\WindowsUpdate\AU
    AUOptions    REG_DWORD    0x4

ScheduledInstallDay

HKEY_LOCAL_MACHINE\Software\Policies\Microsoft\Windows\WindowsUpdate\AU
    ScheduledInstallDay    REG_DWORD    0x7

ScheduledInstallTime

HKEY_LOCAL_MACHINE\Software\Policies\Microsoft\Windows\WindowsUpdate\AU
    ScheduledInstallTime    REG_DWORD    0x2

ScheduledInstallSecondWeek

HKEY_LOCAL_MACHINE\Software\Policies\Microsoft\Windows\WindowsUpdate\AU
    ScheduledInstallSecondWeek    REG_DWORD    0x1

ScheduledInstallFourthWeek

HKEY_LOCAL_MACHINE\Software\Policies\Microsoft\Windows\WindowsUpdate\AU
    ScheduledInstallFourthWeek    REG_DWORD    0x1

ExcludeWUDriversInQualityUpdate

HKEY_LOCAL_MACHINE\Software\Policies\Microsoft\Windows\WindowsUpdate
    ExcludeWUDriversInQualityUpdate    REG_DWORD    0x1


ComputerName Status     KB          Size Title                                                                         
------------ ------     --          ---- -----                                                                         
LAPTOP8      ----H--    KB4481252   13MB Microsoft Silverlight (KB4481252)                                             
LAPTOP8      ----H--    KB890830    31MB Windows Malicious Software Removal Tool x64 - March 2020 (KB890830)           



Deployment Image Servicing and Management tool
Version: 10.0.18362.1

Image Version: 10.0.18362.592

Packages listing:


---------------------------------------------------------------------------------------------------- | ---------- | --------------- | -------------------
Package Identity                                                                                     | State      | Release Type    | Install Time       
---------------------------------------------------------------------------------------------------- | ---------- | --------------- | -------------------
Microsoft-OneCore-ApplicationModel-Sync-Desktop-FOD-Package~31bf3856ad364e35~amd64~~10.0.18362.1     | Superseded | OnDemand Pack   | 8/29/2019 12:24 AM 
Microsoft-OneCore-ApplicationModel-Sync-Desktop-FOD-Package~31bf3856ad364e35~amd64~~10.0.18362.329   | Installed  | OnDemand Pack   | 9/17/2019 1:33 AM  
Microsoft-OneCore-DeveloperMode-Desktop-Package~31bf3856ad364e35~amd64~~10.0.18362.1                 | Installed  | OnDemand Pack   | 2/14/2020 12:24 AM 
Microsoft-WebDriver-Package~31bf3856ad364e35~amd64~~10.0.18362.1                                     | Installed  | OnDemand Pack   | 2/14/2020 12:24 AM 
Microsoft-Windows-Client-LanguagePack-Package~31bf3856ad364e35~amd64~en-US~10.0.18362.476            | Superseded | Language Pack   | 11/19/2019 10:17 PM
Microsoft-Windows-Client-LanguagePack-Package~31bf3856ad364e35~amd64~en-US~10.0.18362.592            | Installed  | Language Pack   | 1/28/2020 3:57 AM  
Microsoft-Windows-FodMetadata-Package~31bf3856ad364e35~amd64~~10.0.18362.1                           | Installed  | Feature Pack    | 3/19/2019 6:21 AM  
Microsoft-Windows-Foundation-Package~31bf3856ad364e35~amd64~~10.0.18362.418                          | Installed  | Foundation      | 11/19/2019 10:17 PM
Microsoft-Windows-Hello-Face-Package~31bf3856ad364e35~amd64~~10.0.18362.1                            | Installed  | OnDemand Pack   | 3/19/2019 6:21 AM  
Microsoft-Windows-InternetExplorer-Optional-Package~31bf3856ad364e35~amd64~~11.0.18362.1             | Installed  | OnDemand Pack   | 3/19/2019 6:21 AM  
Microsoft-Windows-LanguageFeatures-Basic-en-us-Package~31bf3856ad364e35~amd64~~10.0.18362.1          | Installed  | OnDemand Pack   | 3/19/2019 6:22 AM  
Microsoft-Windows-LanguageFeatures-Handwriting-en-us-Package~31bf3856ad364e35~amd64~~10.0.18362.1    | Installed  | OnDemand Pack   | 3/19/2019 6:22 AM  
Microsoft-Windows-LanguageFeatures-OCR-en-us-Package~31bf3856ad364e35~amd64~~10.0.18362.1            | Installed  | OnDemand Pack   | 3/19/2019 6:22 AM  
Microsoft-Windows-LanguageFeatures-Speech-en-ca-Package~31bf3856ad364e35~amd64~~10.0.18362.1         | Installed  | OnDemand Pack   | 7/6/2019 7:05 AM   
Microsoft-Windows-LanguageFeatures-Speech-en-us-Package~31bf3856ad364e35~amd64~~10.0.18362.1         | Installed  | OnDemand Pack   | 3/19/2019 6:22 AM  
Microsoft-Windows-LanguageFeatures-TextToSpeech-en-ca-Package~31bf3856ad364e35~amd64~~10.0.18362.1   | Superseded | OnDemand Pack   | 7/6/2019 7:05 AM   
Microsoft-Windows-LanguageFeatures-TextToSpeech-en-ca-Package~31bf3856ad364e35~amd64~~10.0.18362.387 | Installed  | OnDemand Pack   | 10/10/2019 3:29 PM 
Microsoft-Windows-LanguageFeatures-TextToSpeech-en-us-Package~31bf3856ad364e35~amd64~~10.0.18362.1   | Installed  | OnDemand Pack   | 3/19/2019 6:22 AM  
Microsoft-Windows-MediaPlayer-Package~31bf3856ad364e35~amd64~~10.0.18362.1                           | Superseded | OnDemand Pack   | 3/19/2019 6:21 AM  
Microsoft-Windows-MediaPlayer-Package~31bf3856ad364e35~amd64~~10.0.18362.449                         | Installed  | OnDemand Pack   | 11/19/2019 10:17 PM
Microsoft-Windows-NetFx3-OnDemand-Package~31bf3856ad364e35~amd64~~10.0.18362.1                       | Installed  | OnDemand Pack   | 1/28/2020 2:13 AM  
Microsoft-Windows-QuickAssist-Package~31bf3856ad364e35~amd64~~10.0.18362.1                           | Installed  | OnDemand Pack   | 3/19/2019 6:21 AM  
Microsoft-Windows-TabletPCMath-Package~31bf3856ad364e35~amd64~~10.0.18362.1                          | Installed  | OnDemand Pack   | 3/19/2019 6:21 AM  
OpenSSH-Client-Package~31bf3856ad364e35~amd64~~10.0.18362.1                                          | Installed  | OnDemand Pack   | 3/19/2019 6:21 AM  
Package_for_DotNetRollup~31bf3856ad364e35~amd64~~10.0.1.2819                                         | Superseded | Update          | 7/11/2019 8:52 PM  
Package_for_DotNetRollup~31bf3856ad364e35~amd64~~10.0.1.3003                                         | Superseded | Update          | 9/17/2019 1:33 AM  
Package_for_DotNetRollup~31bf3856ad364e35~amd64~~10.0.1.3012                                         | Superseded | Update          | 10/30/2019 6:38 PM 
Package_for_DotNetRollup~31bf3856ad364e35~amd64~~10.0.1.3105                                         | Installed  | Update          | 1/28/2020 3:57 AM  
Package_for_KB4497165~31bf3856ad364e35~amd64~~10.0.1.3                                               | Installed  | Update          | 6/12/2019 1:27 AM  
Package_for_KB4498523~31bf3856ad364e35~amd64~~18362.144.1.1                                          | Installed  | Security Update | 6/12/2019 1:27 AM  
Package_for_KB4503308~31bf3856ad364e35~amd64~~10.0.1.1                                               | Installed  | Security Update | 6/12/2019 1:32 AM  
Package_for_KB4508433~31bf3856ad364e35~amd64~~18362.263.1.1                                          | Installed  | Security Update | 8/8/2019 6:03 PM   
Package_for_KB4509096~31bf3856ad364e35~amd64~~18362.235.1.0                                          | Installed  | Security Update | 7/11/2019 12:48 AM 
Package_for_KB4515383~31bf3856ad364e35~amd64~~18362.350.1.0                                          | Installed  | Security Update | 9/12/2019 5:45 AM  
Package_for_KB4516115~31bf3856ad364e35~amd64~~10.0.1.0                                               | Installed  | Security Update | 9/17/2019 1:33 AM  
Package_for_KB4520390~31bf3856ad364e35~amd64~~18362.387.1.2                                          | Installed  | Security Update | 10/4/2019 7:07 AM  
Package_for_KB4521863~31bf3856ad364e35~amd64~~18362.411.1.3                                          | Installed  | Security Update | 10/26/2019 1:08 AM 
Package_for_KB4524569~31bf3856ad364e35~amd64~~18362.471.1.1                                          | Installed  | Security Update | 11/14/2019 2:38 PM 
Package_for_KB4528759~31bf3856ad364e35~amd64~~18362.590.1.0                                          | Installed  | Security Update | 1/28/2020 2:22 AM  
Package_for_RollupFix~31bf3856ad364e35~amd64~~18362.476.1.8                                          | Superseded | Update          | 11/19/2019 10:17 PM
Package_for_RollupFix~31bf3856ad364e35~amd64~~18362.592.1.5                                          | Installed  | Update          | 1/28/2020 3:57 AM  

The operation completed successfully.

Version    Name                                Repository           Description                                        
-------    ----                                ----------           -----------                                        
2.1.1.2    PSWindowsUpdate                     PSGallery            This module contain cmdlets to manage Windows Up...


